

   git clone git@github.com:Alex2269/stm32f103-blue-pill.git
   git status
   git add .
   git commit -m "$(date "+%Y-%m-%d")"
   git push
   git pull

   #******************************************
   git add . # add all files
   git add blue-pill/README.md # add one file
   git add blue-pill/git-commands.txt
   #******************************************
   git checkout -b pid-new
   git branch
   git checkout master
   #******************************************
